LocTurist1,LocTurist2,EN1,100,90,asfalto
LocTurist3,LocTurist7,EN2,55,35,paralelo
LocTurist2,LocTurist5,EN1,200,150,asfalto
LocTurist5,LocTurist2,A3,54,30,3.25
LocTurist4,LocTurist1,A1,120,60,13.25
LocTurist9,LocTurist6,A4,80,90,7.05 
LocTurist1,LocTurist7,A2,65,40,4.15
LocTurist3,LocTurist6,A8,30,50,2.00